BSMM-lab-3
…
#approach2: pivot_wider is used since it increases the number of columns and reduces the number of rows.
pivoted_item <- selected_items %>%
  pivot_wider(
    names_from = ingredient,
    values_from = measure_number,
    values_fill = 0
  )

pivoted_item

# A tibble: 937 × 42
   name         category `light rum` `lemon juice` `lime juice` `sweet vermouth`
   <chr>        <chr>          <dbl>         <dbl>        <dbl>            <dbl>
 1 Gauguin      Cocktai…        2             1            1                 0  
 2 Fort Lauder… Cocktai…        1.5           0            0.25              0.5
 3 Cuban Cockt… Cocktai…        2             0            0.5               0  
 4 Cool Carlos  Cocktai…        0             0            0                 0  
 5 John Collins Whiskies        0             1            0                 0  
 6 Cherry Rum   Cocktai…        1.25          0            0                 0  
 7 Casa Blanca  Cocktai…        2             0            1.5               0  
 8 Caribbean C… Cocktai…        0.5           0            0                 0  
 9 Amber Amour  Cordial…        0             0.25         0                 0  
10 The Joe Lew… Whiskies        0             0.5          0                 0  
# ℹ 927 more rows
# ℹ 36 more variables: `orange juice` <dbl>, `powdered sugar` <dbl>,
#   `dark rum` <dbl>, `cranberry juice` <dbl>, `pineapple juice` <dbl>,
#   `bourbon whiskey` <dbl>, `simple syrup` <dbl>,
#   `cherry flavored brandy` <dbl>, `light cream` <dbl>, `triple sec` <dbl>,
#   maraschino <dbl>, amaretto <dbl>, grenadine <dbl>, `apple brandy` <dbl>,
#   brandy <dbl>, gin <dbl>, anisette <dbl>, `dry vermouth` <dbl>, …
…
Attaching package: 'janitor'

The following objects are masked from 'package:stats':

    chisq.test, fisher.test

#clean the data and remove NA values
pivoted_item <- pivoted_item %>%
  janitor::clean_names() %>%
  drop_na()

pivoted_item

# A tibble: 937 × 42
   name    category light_rum lemon_juice lime_juice sweet_vermouth orange_juice
   <chr>   <chr>        <dbl>       <dbl>      <dbl>          <dbl>        <dbl>
 1 Gauguin Cocktai…      2           1          1               0           0   
 2 Fort L… Cocktai…      1.5         0          0.25            0.5         0.25
 3 Cuban … Cocktai…      2           0          0.5             0           0   
 4 Cool C… Cocktai…      0           0          0               0           1   
 5 John C… Whiskies      0           1          0               0           0   
 6 Cherry… Cocktai…      1.25        0          0               0           0   
 7 Casa B… Cocktai…      2           0          1.5             0           0   
 8 Caribb… Cocktai…      0.5         0          0               0           0   
 9 Amber … Cordial…      0           0.25       0               0           0   
10 The Jo… Whiskies      0           0.5        0               0           0   
# ℹ 927 more rows
# ℹ 35 more variables: powdered_sugar <dbl>, dark_rum <dbl>,
#   cranberry_juice <dbl>, pineapple_juice <dbl>, bourbon_whiskey <dbl>,
#   simple_syrup <dbl>, cherry_flavored_brandy <dbl>, light_cream <dbl>,
#   triple_sec <dbl>, maraschino <dbl>, amaretto <dbl>, grenadine <dbl>,
#   apple_brandy <dbl>, brandy <dbl>, gin <dbl>, anisette <dbl>,
#   dry_vermouth <dbl>, apricot_flavored_brandy <dbl>, bitters <dbl>, …
…
#|summary(recipe_model2)
#|recipe_model2

Exercise 4

recipe_model %>%
  recipes::tidy(1) %>%
  dplyr::arrange(desc(value))

# A tibble: 80 × 4
   terms            statistic value id             
   <chr>            <chr>     <dbl> <chr>          
 1 orange_juice     sd        0.776 normalize_2phGd
 2 gin              sd        0.564 normalize_2phGd
 3 light_rum        sd        0.477 normalize_2phGd
 4 vodka            sd        0.476 normalize_2phGd
 5 lemon_juice      sd        0.451 normalize_2phGd
 6 blanco_tequila   sd        0.407 normalize_2phGd
 7 lime_juice       sd        0.389 normalize_2phGd
 8 bourbon_whiskey  sd        0.374 normalize_2phGd
 9 grapefruit_juice sd        0.373 normalize_2phGd
10 brandy           sd        0.357 normalize_2phGd
# ℹ 70 more rows
…
On average the most used ingredient in the Boston Cocktails dataset is orange juice.

Exercise 5

drinks <- recipe_model %>%
  recipes::tidy(2)
drinks_1_to_5 <- drinks %>%
  filter(component %in% c("PC1", "PC2", "PC3", "PC4", "PC5"))

drinks_1_to_5

# A tibble: 200 × 4
   terms             value component id       
   <chr>             <dbl> <chr>     <chr>    
 1 light_rum        0.163  PC1       pca_WTNMV
 2 lemon_juice     -0.0140 PC1       pca_WTNMV
 3 lime_juice       0.224  PC1       pca_WTNMV
 4 sweet_vermouth  -0.0661 PC1       pca_WTNMV
 5 orange_juice     0.0308 PC1       pca_WTNMV
 6 powdered_sugar  -0.476  PC1       pca_WTNMV
 7 dark_rum         0.124  PC1       pca_WTNMV
 8 cranberry_juice  0.0954 PC1       pca_WTNMV
 9 pineapple_juice  0.119  PC1       pca_WTNMV
10 bourbon_whiskey  0.0963 PC1       pca_WTNMV
# ℹ 190 more rows
…
